0 0 0 0   1.000000000000E+00
1 0 0 0   1.000000000000E+00
3 0 0 0   1.000000000000E+00
0 1 0 0   9.998595093441E-01
1 1 0 0   9.999450616236E-01
3 1 0 0   1.000000000000E+00
0 0 1 0   9.880533473223E-01
1 0 1 0   1.000000000000E+00
2 0 1 0  -1.644885763928E-02
3 0 1 0  -1.048206728748E-02
0 0 0 1   1.000000000000E+00
1 0 0 1  -1.541122410622E-01
3 0 0 1   3.224384691056E-03
0 2 0 0   9.848278447813E-01
0 1 1 0   3.649059494717E-04
2 1 1 0   9.811999516014E-06
0 1 0 1   9.999991589017E-01
1 1 0 1   9.997148163883E-01
3 1 0 1  -1.735341927322E-01
0 0 2 0  -3.292695640355E-03
2 0 2 0  -2.387786750134E-02
0 0 1 1   9.893262372618E-01
1 0 1 1   9.999945790630E-01
2 0 1 1  -3.126833102272E-05
3 0 1 1  -1.345420480740E-05
0 0 0 2   1.000000000000E+00
1 0 0 2   1.457175221630E-01
3 0 0 2  -1.296618007757E-03
0 2 0 1   9.892971850780E-01
0 1 1 1   9.995789627783E-01
2 1 1 1  -1.057724297982E-03
0 1 0 2   9.999985517881E-01
1 1 0 2   2.900312933941E-02
3 1 0 2  -1.459107974623E-01
0 0 2 1   9.995696081816E-01
2 0 2 1  -2.584022529706E-05
0 0 1 2   9.999982150342E-01
1 0 1 2   2.933595745200E-02
2 0 1 2  -2.813613340286E-06
3 0 1 2   8.455718885244E-04
0 0 0 3   1.000000000000E+00
1 0 0 3   1.889425394376E-03
3 0 0 3  -1.701885357632E-03
0 2 0 2   9.895319354315E-01
0 1 1 2   9.999628616675E-01
2 1 1 2   3.370881496278E-04
0 1 0 3   9.999380618317E-01
1 1 0 3  -8.603071753176E-03
3 1 0 3  -1.443136692512E-01
0 0 2 2   9.999298851806E-01
2 0 2 2   9.869161250997E-06
0 0 1 3   9.999999967530E-01
1 0 1 3  -1.184165202878E-02
2 0 1 3  -1.565257745737E-06
3 0 1 3   5.121960665227E-04
0 0 0 4   1.000000000000E+00
1 0 0 4  -8.058561123568E-05
3 0 0 4  -1.112980223522E-02
0 2 0 3   9.994665921181E-01
0 1 1 3   9.999182897462E-01
2 1 1 3  -9.028845014117E-05
0 1 0 4   9.998808141077E-01
1 1 0 4   1.943653813037E-04
3 1 0 4  -3.265766507038E-02
0 0 2 3   9.999821284134E-01
2 0 2 3  -1.274768029377E-02
0 0 1 4   9.999234759263E-01
1 0 1 4  -5.978532747625E-03
2 0 1 4  -1.465763459571E-02
3 0 1 4   9.341842910510E-04
0 0 0 5   1.000000000000E+00
1 0 0 5   1.237102628899E-02
3 0 0 5  -4.848848052442E-03
0 2 0 4   9.965618820281E-01
0 1 1 4   9.986135647420E-01
2 1 1 4   8.036795069139E-02
0 1 0 5   9.999894720543E-01
1 1 0 5  -5.263393143623E-02
3 1 0 5  -2.013474087907E-02
0 0 2 4   9.470223624263E-01
2 0 2 4   3.272612457685E-04
0 0 1 5   9.999999993744E-01
1 0 1 5  -3.211676276722E-01
2 0 1 5   2.664799214983E-03
3 0 1 5   7.144752235924E-04
0 0 0 6   1.000000000000E+00
1 0 0 6   3.537333495919E-05
3 0 0 6  -3.735589080551E-03
0 2 0 5   9.998572195589E-01
0 1 1 5   9.989328794085E-01
2 1 1 5   2.323539989028E-03
0 1 0 6   9.999945178230E-01
1 1 0 6  -3.634765626165E-02
3 1 0 6  -1.673743283665E-02
0 0 2 5   9.999677690278E-01
2 0 2 5  -2.849457639584E-02
0 0 1 6   9.999981856822E-01
1 0 1 6  -8.028754925644E-03
2 0 1 6   2.569453462407E-07
3 0 1 6  -9.714422728437E-05
0 0 0 7   1.000000000000E+00
1 0 0 7  -1.904896931671E-03
3 0 0 7  -3.311242044932E-03
0 2 0 6   9.998609376452E-01
0 1 1 6  -5.097381005528E-02
2 1 1 6  -6.989942204247E-04
0 1 0 7   9.999976577907E-01
1 1 0 7   3.825316337347E-02
3 1 0 7  -1.666183598327E-02
0 0 2 6   9.959478985819E-01
2 0 2 6   9.979568781724E-01
0 0 1 7   9.995018963798E-01
1 0 1 7   8.993210389136E-02
2 0 1 7   1.074049982328E-05
3 0 1 7   4.520562873462E-03
0 0 0 8   1.000000000000E+00
1 0 0 8  -3.155882021261E-02
3 0 0 8  -2.164323850781E-03
0 2 0 7   9.999708368935E-01
0 1 1 7  -5.855897596209E-01
2 1 1 7  -8.036063091368E-04
0 1 0 8   9.999999980197E-01
1 1 0 8   8.057587952782E-01
3 1 0 8  -7.594707324011E-03
0 0 2 7   1.607221221242E-01
2 0 2 7  -9.379608803952E-03
0 0 1 8   9.999997285395E-01
1 0 1 8   9.869996957750E-01
2 0 1 8  -1.564599313326E-05
3 0 1 8  -8.803079119060E-02
0 0 0 9   1.000000000000E+00
1 0 0 9   7.368316894282E-04
3 0 0 9  -6.095816337179E-05
0 2 0 8   9.999516592315E-01
0 1 1 8  -2.709499916110E-01
2 1 1 8  -1.793368792134E-05
0 1 0 9   9.999999988491E-01
1 1 0 9   9.625784678408E-01
3 1 0 9  -9.832541814996E-03
0 0 2 8   9.979286594877E-01
2 0 2 8   5.378688206413E-04
0 0 1 9   9.940297299211E-01
1 0 1 9  -6.433032390019E-02
2 0 1 9  -3.750798660303E-05
3 0 1 9   5.339100329873E-03
0 0 0 10   1.000000000000E+00
1 0 0 10  -1.091095597687E-01
3 0 0 10   2.991485352587E-05
0 2 0 9   9.999716730021E-01
0 1 1 9   3.306954370301E-01
2 1 1 9  -8.108791165337E-05
0 1 0 10   9.999999997377E-01
1 1 0 10   9.436797947838E-01
3 1 0 10  -7.526394766815E-03
0 0 2 9   9.322491558015E-02
2 0 2 9  -9.541446298381E-03
0 0 1 10   9.999998639336E-01
1 0 1 10   9.956450748711E-01
2 0 1 10  -1.939612198917E-06
3 0 1 10   4.234813664801E-03
0 0 0 11   1.000000000000E+00
1 0 0 11   5.216634411139E-04
3 0 0 11  -2.282365112418E-05
0 2 0 10   9.999516350971E-01
0 1 1 10   9.919290917683E-01
2 1 1 10  -3.104017939761E-05
0 1 0 11   9.999999449939E-01
1 1 0 11   1.264906660141E-01
3 1 0 11  -9.834963303570E-03
2 0 2 10  -1.490081634017E-06
2 0 1 11   5.384441311452E-08
3 0 1 11  -8.762894087573E-03
3 0 0 12  -3.316809923259E-04
0 2 0 11   9.999766883783E-01
2 1 1 11   5.396149958883E-05
3 1 0 12  -6.827868494702E-03
-1/ end of m= 1
