 12

      C             0.688562       0.000000        2.499967
      C            -0.688562       0.000000        2.499967
      C             0.688562       0.000000       -2.499967
      C            -0.688562       0.000000       -2.499967
      H             1.243879       0.919040        2.514890
      H             1.243879      -0.919040        2.514890
      H            -1.243879       0.919040        2.514890
      H            -1.243879      -0.919040        2.514890
      H             1.243879       0.919040       -2.514890
      H             1.243879      -0.919040       -2.514890
      H            -1.243879       0.919040       -2.514890
      H            -1.243879      -0.919040       -2.514890
